{
   "result" : {
      "rewardsDiscountBucket" : [
         {
            "rewardPointsValueDiscounted" : 1760,
            "created" : 1480493786739,
            "additionalRequirements" : null,
            "fastIndexId" : null,
            "campaignId" : null,
            "redemptionsUndiscounted" : 0,
            "honeybeeValue" : 0,
            "discountPercentOff" : 20,
            "outstandingDiscounted" : 0,
            "status" : "ACTIVE",
            "ngc_ID" : null,
            "preset" : false,
            "merchantID" : "8a7180903d380cd6013d3c9d7b0c0015",
            "pointsValue" : 2200,
            "captiveELoyaltyEnabled" : false,
            "locations" : [
               {
                  "locationName" : null,
                  "merchantLogoURL" : null,
                  "city" : null,
                  "merchantID" : null,
                  "bonusMultiplier" : 0,
                  "transMappings" : null,
                  "locationPhoneNumber" : null,
                  "state" : null,
                  "loyaltyCardActive" : false,
                  "locationContactName" : null,
                  "created" : 1478275744423,
                  "fastIndexId" : null,
                  "id" : 0,
                  "merchantStatus" : null,
                  "gpsLong" : -97.7416706,
                  "updated" : null,
                  "gpsLat" : 30.2699369,
                  "locationURL" : null,
                  "loyaltyCardMinTransactionAmountInCents" : 0,
                  "zipcode" : null,
                  "address" : null,
                  "distance" : null,
                  "merchantTitle" : null,
                  "merchantType" : null,
                  "categories" : null
               }
            ],
            "distance" : null,
            "delivery" : null,
            "removed" : null,
            "outstandingUndiscounted" : 0,
            "merchantName" : "5 Plates Ristorante",
            "esSynced" : null,
            "isNgc" : null,
            "type" : "MERCHANT",
            "title" : "5 Plates Ristorante",
            "updated" : 1480493786739,
            "redeemedDiscounted" : 0,
            "printRequired" : false,
            "description" : "!!Redeemable only at 5 Plates Ristorante.\n!!This Reward is redeemable for up to the face value and can only be used once.\n!!Any unused value will be lost after use. No cash back on unused value.\n!!Do not call number listed on REWARD. For any customer service issues contact Buzz Points directly at 1-877-577-2899.\n\n\n*$10.00 Buzz Point Reward*\n\nRedeemable only at 5 Plates Ristorante.\n\nThis Reward is redeemable for up to the face value and can only be used once.  Any unused value will be lost after use. No cash back on unused value. This Reward is not reloadable.\n\nThis Buzz Points Reward is not redeemable for cash (unless required by law). Promotional value cannot be combined with other offers.  \n\nUnauthorized reproduction, resale, modification, or trade prohibited. \n\n*Use or acceptance of this REWARD constitutes acceptance of these terms.*",
            "discountValue" : 440,
            "id" : 123456,
            "charityId" : null,
            "loggedinUserId" : null,
            "imageUri" : "http://i.imgur.com/nNPwNtZ.jpg?1",
            "views" : 0,
            "rewardValueDiscounted" : 1760,
            "value" : 10,
            "discount_Id" : 7237701,
            "discountExpires" : 1543441692,
            "changeLogs" : [],
            "fulfillment" : "IVR",
            "rank" : 0,
            "bucket" : 1,
            "medium" : "ELECTRONIC",
            "discountPointsValue" : 440,
            "purchasesUndiscounted" : 0,
            "published" : null,
            "charities" : null,
            "scope" : "LOCAL"
         },
         {
            "description" : "!!Redeemable only at Hut's Hamburgers.\n!!This Reward is redeemable for up to the face value and can only be used once.\n!!Any unused value will be lost after use. No cash back on unused value.\n!!Do not call number listed on REWARD. For any customer service issues contact Buzz Points directly at 1-877-577-2899.\n\n\n*$10.00 Buzz Point Reward*\n\nRedeemable only at Hut's Hamburgers.\n\nThis Reward is redeemable for up to the face value and can only be used once.  Any unused value will be lost after use. No cash back on unused value. This Reward is not reloadable.\n\nThis Buzz Points Reward is not redeemable for cash (unless required by law). Promotional value cannot be combined with other offers.  \n\nUnauthorized reproduction, resale, modification, or trade prohibited. \n\n*Use or acceptance of this REWARD constitutes acceptance of these terms.*",
            "discountValue" : 440,
            "id" : 123456,
            "charityId" : null,
            "imageUri" : "http://i.imgur.com/GC4LBz0.jpg?1",
            "loggedinUserId" : null,
            "views" : 0,
            "rewardValueDiscounted" : 1760,
            "value" : 10,
            "discountExpires" : 1543441692,
            "discount_Id" : 7237701,
            "changeLogs" : [],
            "fulfillment" : "IVR",
            "rank" : 0,
            "bucket" : 1,
            "medium" : "ELECTRONIC",
            "discountPointsValue" : 440,
            "published" : null,
            "purchasesUndiscounted" : 0,
            "charities" : null,
            "scope" : "LOCAL",
            "rewardPointsValueDiscounted" : 1760,
            "created" : 1480493786739,
            "additionalRequirements" : null,
            "fastIndexId" : null,
            "campaignId" : null,
            "honeybeeValue" : 0,
            "redemptionsUndiscounted" : 0,
            "discountPercentOff" : 20,
            "outstandingDiscounted" : 0,
            "status" : "ACTIVE",
            "ngc_ID" : null,
            "preset" : false,
            "merchantID" : "8a7180903d380cd6013d3c9d7b0c0015",
            "pointsValue" : 2200,
            "captiveELoyaltyEnabled" : false,
            "locations" : [
               {
                  "bonusMultiplier" : 0,
                  "city" : null,
                  "merchantID" : null,
                  "locationPhoneNumber" : null,
                  "state" : null,
                  "transMappings" : null,
                  "locationName" : null,
                  "merchantLogoURL" : null,
                  "id" : 0,
                  "merchantStatus" : null,
                  "created" : 1478275744423,
                  "locationContactName" : null,
                  "loyaltyCardActive" : false,
                  "fastIndexId" : null,
                  "locationURL" : null,
                  "address" : null,
                  "zipcode" : null,
                  "loyaltyCardMinTransactionAmountInCents" : 0,
                  "gpsLong" : -97.7416706,
                  "updated" : null,
                  "gpsLat" : 30.2699369,
                  "merchantType" : null,
                  "categories" : null,
                  "merchantTitle" : null,
                  "distance" : null
               }
            ],
            "delivery" : null,
            "distance" : null,
            "outstandingUndiscounted" : 0,
            "removed" : null,
            "merchantName" : "Hut's Hamburgers",
            "esSynced" : null,
            "type" : "MERCHANT",
            "isNgc" : null,
            "title" : "Hut's Hamburgers",
            "updated" : 1480493786739,
            "redeemedDiscounted" : 0,
            "printRequired" : false
         },
         {
            "views" : 0,
            "rewardValueDiscounted" : 1760,
            "charityId" : null,
            "loggedinUserId" : null,
            "imageUri" : "http://i.imgur.com/heeecQM.jpg?2",
            "discountValue" : 440,
            "id" : 123456,
            "description" : "!!Redeemable only at The Veggie Table.\n!!This Reward is redeemable for up to the face value and can only be used once.\n!!Any unused value will be lost after use. No cash back on unused value.\n!!Do not call number listed on REWARD. For any customer service issues contact Buzz Points directly at 1-877-577-2899.\n\n\n*$10.00 Buzz Point Reward*\n\nRedeemable only at The Veggie Table.\n\nThis Reward is redeemable for up to the face value and can only be used once.  Any unused value will be lost after use. No cash back on unused value. This Reward is not reloadable.\n\nThis Buzz Points Reward is not redeemable for cash (unless required by law). Promotional value cannot be combined with other offers.  \n\nUnauthorized reproduction, resale, modification, or trade prohibited. \n\n*Use or acceptance of this REWARD constitutes acceptance of these terms.*",
            "purchasesUndiscounted" : 0,
            "published" : null,
            "charities" : null,
            "scope" : "LOCAL",
            "medium" : "ELECTRONIC",
            "discountPointsValue" : 440,
            "rank" : 0,
            "bucket" : 1,
            "value" : 10,
            "discount_Id" : 7237701,
            "discountExpires" : 1543441692,
            "changeLogs" : [],
            "fulfillment" : "IVR",
            "merchantID" : "8a7180903d380cd6013d3c9d7b0c0015",
            "pointsValue" : 2200,
            "captiveELoyaltyEnabled" : false,
            "status" : "ACTIVE",
            "preset" : false,
            "ngc_ID" : null,
            "discountPercentOff" : 20,
            "outstandingDiscounted" : 0,
            "rewardPointsValueDiscounted" : 1760,
            "created" : 1480493786739,
            "campaignId" : null,
            "additionalRequirements" : null,
            "fastIndexId" : null,
            "honeybeeValue" : 0,
            "redemptionsUndiscounted" : 0,
            "redeemedDiscounted" : 0,
            "printRequired" : false,
            "updated" : 1480493786739,
            "merchantName" : "The Veggie Table",
            "esSynced" : null,
            "type" : "MERCHANT",
            "isNgc" : null,
            "title" : "The Veggie Table",
            "locations" : [
               {
                  "locationName" : null,
                  "merchantLogoURL" : null,
                  "transMappings" : null,
                  "state" : null,
                  "locationPhoneNumber" : null,
                  "merchantID" : null,
                  "city" : null,
                  "bonusMultiplier" : 0,
                  "fastIndexId" : null,
                  "loyaltyCardActive" : false,
                  "locationContactName" : null,
                  "created" : 1478275744423,
                  "merchantStatus" : null,
                  "id" : 0,
                  "gpsLat" : 30.2699369,
                  "updated" : null,
                  "gpsLong" : -97.7416706,
                  "loyaltyCardMinTransactionAmountInCents" : 0,
                  "zipcode" : null,
                  "address" : null,
                  "locationURL" : null,
                  "merchantTitle" : null,
                  "distance" : null,
                  "categories" : null,
                  "merchantType" : null
               }
            ],
            "delivery" : null,
            "distance" : null,
            "outstandingUndiscounted" : 0,
            "removed" : null
         },
         {
            "discountValue" : 440,
            "id" : 123456,
            "description" : "!!Redeemable only at House Pizza.\n!!This Reward is redeemable for up to the face value and can only be used once.\n!!Any unused value will be lost after use. No cash back on unused value.\n!!Do not call number listed on REWARD. For any customer service issues contact Buzz Points directly at 1-877-577-2899.\n\n\n*$10.00 Buzz Point Reward*\n\nRedeemable only at House Pizza.\n\nThis Reward is redeemable for up to the face value and can only be used once.  Any unused value will be lost after use. No cash back on unused value. This Reward is not reloadable.\n\nThis Buzz Points Reward is not redeemable for cash (unless required by law). Promotional value cannot be combined with other offers.  \n\nUnauthorized reproduction, resale, modification, or trade prohibited. \n\n*Use or acceptance of this REWARD constitutes acceptance of these terms.*",
            "rewardValueDiscounted" : 1760,
            "views" : 0,
            "loggedinUserId" : null,
            "imageUri" : "http://i.imgur.com/8Vu3HgC.jpg?1",
            "charityId" : null,
            "bucket" : 1,
            "rank" : 0,
            "changeLogs" : [],
            "fulfillment" : "IVR",
            "value" : 10,
            "discount_Id" : 7237701,
            "discountExpires" : 1543441692,
            "charities" : null,
            "scope" : "LOCAL",
            "purchasesUndiscounted" : 0,
            "published" : null,
            "medium" : "ELECTRONIC",
            "discountPointsValue" : 440,
            "outstandingDiscounted" : 0,
            "discountPercentOff" : 20,
            "additionalRequirements" : null,
            "campaignId" : null,
            "fastIndexId" : null,
            "redemptionsUndiscounted" : 0,
            "honeybeeValue" : 0,
            "rewardPointsValueDiscounted" : 1760,
            "created" : 1480493786739,
            "captiveELoyaltyEnabled" : false,
            "merchantID" : "8a7180903d380cd6013d3c9d7b0c0015",
            "pointsValue" : 2200,
            "preset" : false,
            "ngc_ID" : null,
            "status" : "ACTIVE",
            "isNgc" : null,
            "type" : "MERCHANT",
            "title" : "House Pizza",
            "esSynced" : null,
            "merchantName" : "House Pizza",
            "distance" : null,
            "delivery" : null,
            "removed" : null,
            "outstandingUndiscounted" : 0,
            "locations" : [
               {
                  "fastIndexId" : null,
                  "created" : 1478275744423,
                  "locationContactName" : null,
                  "loyaltyCardActive" : false,
                  "merchantStatus" : null,
                  "id" : 0,
                  "locationName" : null,
                  "merchantLogoURL" : null,
                  "locationPhoneNumber" : null,
                  "state" : null,
                  "transMappings" : null,
                  "bonusMultiplier" : 0,
                  "merchantID" : null,
                  "city" : null,
                  "distance" : null,
                  "merchantTitle" : null,
                  "categories" : null,
                  "merchantType" : null,
                  "gpsLat" : 30.2699369,
                  "updated" : null,
                  "gpsLong" : -97.7416706,
                  "address" : null,
                  "zipcode" : null,
                  "loyaltyCardMinTransactionAmountInCents" : 0,
                  "locationURL" : null
               }
            ],
            "printRequired" : false,
            "redeemedDiscounted" : 0,
            "updated" : 1480493786739
         },
         {
            "captiveELoyaltyEnabled" : false,
            "pointsValue" : 2200,
            "merchantID" : "8a7180903d380cd6013d3c9d7b0c0015",
            "ngc_ID" : null,
            "preset" : false,
            "status" : "ACTIVE",
            "outstandingDiscounted" : 0,
            "discountPercentOff" : 20,
            "redemptionsUndiscounted" : 0,
            "honeybeeValue" : 0,
            "fastIndexId" : null,
            "additionalRequirements" : null,
            "campaignId" : null,
            "created" : 1480493786739,
            "rewardPointsValueDiscounted" : 1760,
            "printRequired" : false,
            "redeemedDiscounted" : 0,
            "updated" : 1480493786739,
            "title" : "Jay's Automotive",
            "type" : "MERCHANT",
            "isNgc" : null,
            "merchantName" : "Jay's Automotive",
            "esSynced" : null,
            "outstandingUndiscounted" : 0,
            "removed" : null,
            "distance" : null,
            "delivery" : null,
            "locations" : [
               {
                  "locationName" : null,
                  "merchantLogoURL" : null,
                  "merchantID" : null,
                  "city" : null,
                  "bonusMultiplier" : 0,
                  "transMappings" : null,
                  "locationPhoneNumber" : null,
                  "state" : null,
                  "loyaltyCardActive" : false,
                  "locationContactName" : null,
                  "created" : 1478275744423,
                  "fastIndexId" : null,
                  "id" : 0,
                  "merchantStatus" : null,
                  "updated" : null,
                  "gpsLong" : -97.7416706,
                  "gpsLat" : 30.2699369,
                  "locationURL" : null,
                  "zipcode" : null,
                  "loyaltyCardMinTransactionAmountInCents" : 0,
                  "address" : null,
                  "distance" : null,
                  "merchantTitle" : null,
                  "merchantType" : null,
                  "categories" : null
               }
            ],
            "rewardValueDiscounted" : 1760,
            "views" : 0,
            "imageUri" : "http://i.imgur.com/fSJWDgA.jpg?1",
            "loggedinUserId" : null,
            "charityId" : null,
            "id" : 123456,
            "discountValue" : 440,
            "description" : "!!Redeemable only at Jay's Automotive.\n!!This Reward is redeemable for up to the face value and can only be used once.\n!!Any unused value will be lost after use. No cash back on unused value.\n!!Do not call number listed on REWARD. For any customer service issues contact Buzz Points directly at 1-877-577-2899.\n\n\n*$10.00 Buzz Point Reward*\n\nRedeemable only at Jay's Automotive.\n\nThis Reward is redeemable for up to the face value and can only be used once.  Any unused value will be lost after use. No cash back on unused value. This Reward is not reloadable.\n\nThis Buzz Points Reward is not redeemable for cash (unless required by law). Promotional value cannot be combined with other offers.  \n\nUnauthorized reproduction, resale, modification, or trade prohibited. \n\n*Use or acceptance of this REWARD constitutes acceptance of these terms.*",
            "scope" : "LOCAL",
            "charities" : null,
            "published" : null,
            "purchasesUndiscounted" : 0,
            "discountPointsValue" : 440,
            "medium" : "ELECTRONIC",
            "bucket" : 1,
            "rank" : 0,
            "changeLogs" : [],
            "fulfillment" : "IVR",
            "discount_Id" : 7237701,
            "discountExpires" : 1543441692,
            "value" : 10
         },
         {
            "created" : 1480493786739,
            "rewardPointsValueDiscounted" : 1760,
            "honeybeeValue" : 0,
            "redemptionsUndiscounted" : 0,
            "campaignId" : null,
            "additionalRequirements" : null,
            "fastIndexId" : null,
            "discountPercentOff" : 20,
            "outstandingDiscounted" : 0,
            "status" : "ACTIVE",
            "ngc_ID" : null,
            "preset" : false,
            "merchantID" : "8a7180903d380cd6013d3c9d7b0c0015",
            "pointsValue" : 2200,
            "captiveELoyaltyEnabled" : false,
            "locations" : [
               {
                  "id" : 0,
                  "merchantStatus" : null,
                  "locationContactName" : null,
                  "created" : 1478275744423,
                  "loyaltyCardActive" : false,
                  "fastIndexId" : null,
                  "bonusMultiplier" : 0,
                  "city" : null,
                  "merchantID" : null,
                  "locationPhoneNumber" : null,
                  "state" : null,
                  "transMappings" : null,
                  "locationName" : null,
                  "merchantLogoURL" : null,
                  "merchantType" : null,
                  "categories" : null,
                  "merchantTitle" : null,
                  "distance" : null,
                  "locationURL" : null,
                  "address" : null,
                  "zipcode" : null,
                  "loyaltyCardMinTransactionAmountInCents" : 0,
                  "updated" : null,
                  "gpsLong" : -97.7416706,
                  "gpsLat" : 30.2699369
               }
            ],
            "outstandingUndiscounted" : 0,
            "removed" : null,
            "delivery" : null,
            "distance" : null,
            "merchantName" : "Brothers Farmers Market",
            "esSynced" : null,
            "title" : "Brothers Farmers Market",
            "type" : "MERCHANT",
            "isNgc" : null,
            "updated" : 1480493786739,
            "redeemedDiscounted" : 0,
            "printRequired" : false,
            "description" : "!!Redeemable only at Brothers Farmers Market.\n!!This Reward is redeemable for up to the face value and can only be used once.\n!!Any unused value will be lost after use. No cash back on unused value.\n!!Do not call number listed on REWARD. For any customer service issues contact Buzz Points directly at 1-877-577-2899.\n\n\n*$10.00 Buzz Point Reward*\n\nRedeemable only at Brothers Farmers Market.\n\nThis Reward is redeemable for up to the face value and can only be used once.  Any unused value will be lost after use. No cash back on unused value. This Reward is not reloadable.\n\nThis Buzz Points Reward is not redeemable for cash (unless required by law). Promotional value cannot be combined with other offers.  \n\nUnauthorized reproduction, resale, modification, or trade prohibited. \n\n*Use or acceptance of this REWARD constitutes acceptance of these terms.*",
            "id" : 123456,
            "discountValue" : 440,
            "charityId" : null,
            "imageUri" : "http://i.imgur.com/ChGheG1.jpg?1",
            "loggedinUserId" : null,
            "views" : 0,
            "rewardValueDiscounted" : 1760,
            "discount_Id" : 7237701,
            "discountExpires" : 1543441692,
            "value" : 10,
            "fulfillment" : "IVR",
            "changeLogs" : [],
            "rank" : 0,
            "bucket" : 1,
            "discountPointsValue" : 440,
            "medium" : "ELECTRONIC",
            "published" : null,
            "purchasesUndiscounted" : 0,
            "scope" : "LOCAL",
            "charities" : null
         },
         {
            "description" : "!!Redeemable only at Frisco Diner.\n!!This Reward is redeemable for up to the face value and can only be used once.\n!!Any unused value will be lost after use. No cash back on unused value.\n!!Do not call number listed on REWARD. For any customer service issues contact Buzz Points directly at 1-877-577-2899.\n\n\n*$10.00 Buzz Point Reward*\n\nRedeemable only at Frisco Diner.\n\nThis Reward is redeemable for up to the face value and can only be used once.  Any unused value will be lost after use. No cash back on unused value. This Reward is not reloadable.\n\nThis Buzz Points Reward is not redeemable for cash (unless required by law). Promotional value cannot be combined with other offers.  \n\nUnauthorized reproduction, resale, modification, or trade prohibited. \n\n*Use or acceptance of this REWARD constitutes acceptance of these terms.*",
            "discountValue" : 440,
            "id" : 123456,
            "charityId" : null,
            "loggedinUserId" : null,
            "imageUri" : "http://i.imgur.com/Hst5qkG.jpg?1",
            "views" : 0,
            "rewardValueDiscounted" : 1760,
            "value" : 10,
            "discountExpires" : 1543441692,
            "discount_Id" : 7237701,
            "changeLogs" : [],
            "fulfillment" : "IVR",
            "rank" : 0,
            "bucket" : 1,
            "medium" : "ELECTRONIC",
            "discountPointsValue" : 440,
            "published" : null,
            "purchasesUndiscounted" : 0,
            "charities" : null,
            "scope" : "LOCAL",
            "rewardPointsValueDiscounted" : 1760,
            "created" : 1480493786739,
            "fastIndexId" : null,
            "additionalRequirements" : null,
            "campaignId" : null,
            "honeybeeValue" : 0,
            "redemptionsUndiscounted" : 0,
            "discountPercentOff" : 20,
            "outstandingDiscounted" : 0,
            "status" : "ACTIVE",
            "ngc_ID" : null,
            "preset" : false,
            "pointsValue" : 2200,
            "merchantID" : "8a7180903d380cd6013d3c9d7b0c0015",
            "captiveELoyaltyEnabled" : false,
            "locations" : [
               {
                  "transMappings" : null,
                  "state" : null,
                  "locationPhoneNumber" : null,
                  "merchantID" : null,
                  "city" : null,
                  "bonusMultiplier" : 0,
                  "locationName" : null,
                  "merchantLogoURL" : null,
                  "merchantStatus" : null,
                  "id" : 0,
                  "fastIndexId" : null,
                  "loyaltyCardActive" : false,
                  "locationContactName" : null,
                  "created" : 1478275744423,
                  "loyaltyCardMinTransactionAmountInCents" : 0,
                  "zipcode" : null,
                  "address" : null,
                  "locationURL" : null,
                  "gpsLat" : 30.2699369,
                  "gpsLong" : -97.7416706,
                  "updated" : null,
                  "categories" : null,
                  "merchantType" : null,
                  "merchantTitle" : null,
                  "distance" : null
               }
            ],
            "distance" : null,
            "delivery" : null,
            "outstandingUndiscounted" : 0,
            "removed" : null,
            "esSynced" : null,
            "merchantName" : "Frisco Diner",
            "isNgc" : null,
            "type" : "MERCHANT",
            "title" : "Frisco Diner",
            "updated" : 1480493786739,
            "redeemedDiscounted" : 0,
            "printRequired" : false
         }
      ]
   }
}
